[
    {
        "name": "UISPZ01",     
        "name": "UISPZ02",
	"name": "UISPD01",
       	"name": "UISPD02",
      	"name": "UISPU01",
        "name": "UISPU02",
       	"name": "UISTG01",
       	"name": "UISTG02",
        "name": "UICAP01",
	"name": "UICAP02",
        "name": "UISDB01",
	"name": "UISDB02",
        "name": "UDTPD01",
	"name": "UDTPD02",
	"name": "UDTPD03",
	"name": "UDTPD04",
	"name": "UDTPD05",
	"name": "UDTPB01",
	"name": "UDTPB02",
	"name": "UDTPR01",
        "name": "UDTPR02",
	"name": "UDTPR03",
	"name": "UDCLD01",
	"name": "UDCLD02",
	"name": "UDCLD03",
	"name": "UDCLD04",
	"name": "UDCLD05",
	"name": "UDCLB01",
	"name": "UDCLB02",
	"name": "UDCLR01",
	"name": "UDCLR02",
	"name": "UDCLR03",
        "name": "UDACD01",
	"name": "UDACD02",
	"name": "UDACD03",
	"name": "UDACD04",
	"name": "UDACD05",
	"name": "UDACB01",
	"name": "UDACB02",
	"name": "UDACR01",
	"name": "UDACR02",
	"name": "UDACR03",
	"name": "UDPLD01",
	"name": "UDPLD02",
        "name": "UDPLD03",
	"name": "UDPLD04",
	"name": "UDPLD05",       
       	"name": "UDPLB01",
	"name": "UDPLB02",
	"name": "UDPLR01",
	"name": "UDPLR02",
	"name": "UDPLR03"
    }
]
